EESchema Schematic File Version 4
EELAYER 30 0
EELAYER END
$Descr A4 11693 8268
encoding utf-8
Sheet 4 4
Title ""
Date ""
Rev ""
Comp ""
Comment1 ""
Comment2 ""
Comment3 ""
Comment4 ""
$EndDescr
Wire Wire Line
	4050 5250 5250 5250
Wire Wire Line
	6400 2600 6400 2650
Wire Wire Line
	7250 2600 6400 2600
Wire Wire Line
	7250 5350 7250 2600
Wire Wire Line
	7450 5350 7250 5350
Wire Wire Line
	5400 2650 5900 2650
Wire Wire Line
	5400 3700 5400 2650
Wire Wire Line
	4100 3700 5400 3700
Wire Wire Line
	4100 2950 4100 3700
Wire Wire Line
	4500 2150 4100 2150
Wire Wire Line
	4500 3550 4500 2150
Wire Wire Line
	5900 3550 4500 3550
Wire Wire Line
	4450 3450 5900 3450
Wire Wire Line
	4450 2250 4450 3450
Wire Wire Line
	4100 2250 4450 2250
Wire Wire Line
	4400 2350 4100 2350
Wire Wire Line
	4400 3350 4400 2350
Wire Wire Line
	5900 3350 4400 3350
Wire Wire Line
	4350 3250 5900 3250
Wire Wire Line
	4350 2450 4350 3250
Wire Wire Line
	4100 2450 4350 2450
Wire Wire Line
	4300 2550 4100 2550
Wire Wire Line
	4300 3150 4300 2550
Wire Wire Line
	5900 3150 4300 3150
Wire Wire Line
	4250 3050 5900 3050
Wire Wire Line
	4250 2650 4250 3050
Wire Wire Line
	4100 2650 4250 2650
Wire Wire Line
	4200 2750 4100 2750
Wire Wire Line
	4200 2950 4200 2750
Wire Wire Line
	5900 2950 4200 2950
Wire Wire Line
	5900 2850 4100 2850
Wire Wire Line
	6750 5250 7450 5250
Wire Wire Line
	6750 3850 6750 5250
Wire Wire Line
	6400 3850 6750 3850
Wire Wire Line
	6700 3950 6400 3950
Wire Wire Line
	6700 5150 6700 3950
Wire Wire Line
	7450 5150 6700 5150
Wire Wire Line
	6650 5050 7450 5050
Wire Wire Line
	6650 4050 6650 5050
Wire Wire Line
	6400 4050 6650 4050
Wire Wire Line
	6600 4150 6400 4150
Wire Wire Line
	6600 4950 6600 4150
Wire Wire Line
	7450 4950 6600 4950
Wire Wire Line
	6550 4250 6400 4250
Wire Wire Line
	6550 4850 6550 4250
Wire Wire Line
	7450 4850 6550 4850
Wire Wire Line
	6500 4350 6400 4350
Wire Wire Line
	6500 4750 6500 4350
Wire Wire Line
	7450 4750 6500 4750
Wire Wire Line
	6450 4650 7450 4650
Wire Wire Line
	6450 4450 6450 4650
Wire Wire Line
	6400 4450 6450 4450
Wire Wire Line
	6400 4550 7450 4550
Wire Wire Line
	5250 3850 5900 3850
Wire Wire Line
	5250 5250 5250 3850
Wire Wire Line
	5350 3950 5900 3950
Wire Wire Line
	5350 5150 5350 3950
Wire Wire Line
	4050 5150 5350 5150
Wire Wire Line
	5450 4050 5900 4050
Wire Wire Line
	5450 5050 5450 4050
Wire Wire Line
	4050 5050 5450 5050
Wire Wire Line
	5550 4150 5900 4150
Wire Wire Line
	5550 4950 5550 4150
Wire Wire Line
	4050 4950 5550 4950
Wire Wire Line
	5650 4250 5900 4250
Wire Wire Line
	5650 4850 5650 4250
Wire Wire Line
	4050 4850 5650 4850
Wire Wire Line
	5750 4350 5900 4350
Wire Wire Line
	5750 4750 5750 4350
Wire Wire Line
	4050 4750 5750 4750
Wire Wire Line
	5850 4450 5900 4450
Wire Wire Line
	5850 4650 5850 4450
Wire Wire Line
	4050 4650 5850 4650
Wire Wire Line
	4050 4550 5900 4550
$Comp
L conn:Conn_02x20_Counter_Clockwise K?
U 1 1 618677B9
P 6100 3550
AR Path="/618677B9" Ref="K?"  Part="1" 
AR Path="/617D9A49/618677B9" Ref="K4"  Part="1" 
F 0 "K4" H 6150 4667 50  0000 C CNN
F 1 "Conn_02x20_Counter_Clockwise" H 6150 4576 50  0000 C CNN
F 2 "Housings_DIP:DIP-40_W15.24mm_Socket" H 6100 3550 50  0001 C CNN
F 3 "~" H 6100 3550 50  0001 C CNN
	1    6100 3550
	1    0    0    -1  
$EndComp
$Comp
L conn:Conn_01x10 K?
U 1 1 618677BF
P 7650 4850
AR Path="/618677BF" Ref="K?"  Part="1" 
AR Path="/617D9A49/618677BF" Ref="K3"  Part="1" 
F 0 "K3" H 7568 5467 50  0000 C CNN
F 1 "Conn_01x10" H 7568 5376 50  0000 C CNN
F 2 "Pin_Headers:Pin_Header_Straight_1x10" H 7650 4850 50  0001 C CNN
F 3 "~" H 7650 4850 50  0001 C CNN
	1    7650 4850
	1    0    0    -1  
$EndComp
$Comp
L conn:Conn_01x10 K?
U 1 1 618677C5
P 3850 4850
AR Path="/618677C5" Ref="K?"  Part="1" 
AR Path="/617D9A49/618677C5" Ref="K2"  Part="1" 
F 0 "K2" H 3768 5467 50  0000 C CNN
F 1 "Conn_01x10" H 3768 5376 50  0000 C CNN
F 2 "Pin_Headers:Pin_Header_Straight_1x10" H 3850 4850 50  0001 C CNN
F 3 "~" H 3850 4850 50  0001 C CNN
	1    3850 4850
	-1   0    0    -1  
$EndComp
$Comp
L conn:Conn_01x10 K?
U 1 1 618677CB
P 3900 2450
AR Path="/618677CB" Ref="K?"  Part="1" 
AR Path="/617D9A49/618677CB" Ref="K1"  Part="1" 
F 0 "K1" H 3818 3067 50  0000 C CNN
F 1 "Conn_01x10" H 3818 2976 50  0000 C CNN
F 2 "Pin_Headers:Pin_Header_Straight_1x10" H 3900 2450 50  0001 C CNN
F 3 "~" H 3900 2450 50  0001 C CNN
	1    3900 2450
	-1   0    0    -1  
$EndComp
Text Notes 7950 6900 0    118  ~ 0
TEENSY++2.0 ADAPTER
$EndSCHEMATC
