(module lepetomaneb (layer F.Cu) (tedit 0)
  (fp_text reference G*** (at 0 0) (layer F.SilkS) hide
    (effects (font (size 1.524 1.524) (thickness 0.3)))
  )
  (fp_text value LOGO (at 0.75 0) (layer F.SilkS) hide
    (effects (font (size 1.524 1.524) (thickness 0.3)))
  )
  (fp_poly (pts (xy 1.017704 -1.614025) (xy 1.925366 -1.613938) (xy 2.75513 -1.613754) (xy 3.510522 -1.61344)
    (xy 4.195068 -1.612963) (xy 4.812294 -1.61229) (xy 5.365726 -1.61139) (xy 5.85889 -1.610229)
    (xy 6.295312 -1.608774) (xy 6.678517 -1.606994) (xy 7.012031 -1.604855) (xy 7.299382 -1.602325)
    (xy 7.544094 -1.599371) (xy 7.749693 -1.595961) (xy 7.919706 -1.592061) (xy 8.057658 -1.587641)
    (xy 8.167075 -1.582666) (xy 8.251484 -1.577104) (xy 8.31441 -1.570922) (xy 8.359379 -1.564089)
    (xy 8.389917 -1.55657) (xy 8.40955 -1.548335) (xy 8.421804 -1.539349) (xy 8.424688 -1.536371)
    (xy 8.443539 -1.508178) (xy 8.458731 -1.463869) (xy 8.470649 -1.394865) (xy 8.479679 -1.292588)
    (xy 8.486205 -1.148459) (xy 8.490613 -0.9539) (xy 8.493289 -0.700334) (xy 8.494617 -0.37918)
    (xy 8.494983 0.018138) (xy 8.494983 0.028618) (xy 8.494738 0.424875) (xy 8.493713 0.744834)
    (xy 8.491478 0.99715) (xy 8.487602 1.190473) (xy 8.481652 1.333456) (xy 8.473197 1.434752)
    (xy 8.461806 1.503012) (xy 8.447047 1.54689) (xy 8.428489 1.575037) (xy 8.417308 1.586227)
    (xy 8.403626 1.594603) (xy 8.379541 1.60229) (xy 8.341555 1.609319) (xy 8.286168 1.615717)
    (xy 8.209881 1.621515) (xy 8.109195 1.626741) (xy 7.98061 1.631424) (xy 7.820627 1.635595)
    (xy 7.625748 1.639282) (xy 7.392473 1.642515) (xy 7.117303 1.645323) (xy 6.796738 1.647735)
    (xy 6.427281 1.64978) (xy 6.00543 1.651488) (xy 5.527688 1.652887) (xy 4.990555 1.654008)
    (xy 4.390533 1.65488) (xy 3.72412 1.655531) (xy 2.98782 1.655991) (xy 2.178132 1.65629)
    (xy 1.291558 1.656456) (xy 0.324597 1.656519) (xy 0.013857 1.656522) (xy -0.975229 1.6565)
    (xy -1.882891 1.656414) (xy -2.712655 1.65623) (xy -3.468048 1.655916) (xy -4.152594 1.655438)
    (xy -4.76982 1.654766) (xy -5.323252 1.653865) (xy -5.816415 1.652704) (xy -6.252837 1.65125)
    (xy -6.636042 1.649469) (xy -6.969557 1.64733) (xy -7.256907 1.6448) (xy -7.501619 1.641846)
    (xy -7.707218 1.638436) (xy -7.877231 1.634537) (xy -8.015183 1.630116) (xy -8.124601 1.625141)
    (xy -8.209009 1.619579) (xy -8.271935 1.613398) (xy -8.316904 1.606564) (xy -8.347442 1.599046)
    (xy -8.367075 1.59081) (xy -8.379329 1.581825) (xy -8.382213 1.578846) (xy -8.401064 1.550654)
    (xy -8.416256 1.506344) (xy -8.428174 1.43734) (xy -8.437204 1.335063) (xy -8.44373 1.190935)
    (xy -8.448138 0.996376) (xy -8.450814 0.742809) (xy -8.452142 0.421656) (xy -8.452508 0.024338)
    (xy -8.452508 0.013858) (xy -8.452263 -0.382399) (xy -8.451311 -0.679598) (xy -7.730435 -0.679598)
    (xy -7.730435 0.852686) (xy -7.337542 0.840474) (xy -7.153585 0.833868) (xy -7.038434 0.824724)
    (xy -6.975977 0.808185) (xy -6.9501 0.779395) (xy -6.944692 0.7335) (xy -6.944649 0.722074)
    (xy -6.950402 0.663812) (xy -6.980671 0.630548) (xy -7.054965 0.613547) (xy -7.192797 0.604077)
    (xy -7.210117 0.603241) (xy -7.475585 0.590596) (xy -7.475585 -0.679598) (xy -6.753512 -0.679598)
    (xy -6.753512 0.849499) (xy -5.904014 0.849499) (xy -5.904014 0.594649) (xy -6.498662 0.594649)
    (xy -6.498662 0.127425) (xy -6.201338 0.127425) (xy -6.046002 0.125864) (xy -5.9571 0.116772)
    (xy -5.916122 0.093538) (xy -5.904555 0.049553) (xy -5.904014 0.021238) (xy -5.908386 -0.034239)
    (xy -5.933843 -0.06599) (xy -5.998896 -0.080625) (xy -6.122056 -0.084756) (xy -6.201338 -0.08495)
    (xy -6.498662 -0.08495) (xy -6.498662 -0.467224) (xy -6.201338 -0.467224) (xy -6.046002 -0.468785)
    (xy -5.9571 -0.477877) (xy -5.916122 -0.50111) (xy -5.904555 -0.545096) (xy -5.904014 -0.573411)
    (xy -5.904014 -0.679598) (xy -4.969565 -0.679598) (xy -4.969565 0.855141) (xy -4.852759 0.841701)
    (xy -4.793631 0.831203) (xy -4.757972 0.80424) (xy -4.73872 0.742335) (xy -4.728816 0.62701)
    (xy -4.723632 0.503762) (xy -4.711311 0.179263) (xy -4.484537 0.150929) (xy -4.280596 0.094014)
    (xy -4.137876 -0.012279) (xy -4.062653 -0.158404) (xy -4.061206 -0.334814) (xy -4.094514 -0.44221)
    (xy -4.154243 -0.551757) (xy -4.23546 -0.622446) (xy -4.356092 -0.661961) (xy -4.534068 -0.677989)
    (xy -4.648211 -0.679598) (xy -3.822743 -0.679598) (xy -3.822743 0.849499) (xy -2.973244 0.849499)
    (xy -2.973244 0.594649) (xy -3.567893 0.594649) (xy -3.567893 0.127425) (xy -3.270569 0.127425)
    (xy -3.115233 0.125864) (xy -3.026331 0.116772) (xy -2.985352 0.093538) (xy -2.973786 0.049553)
    (xy -2.973244 0.021238) (xy -2.977616 -0.034239) (xy -3.003074 -0.06599) (xy -3.068127 -0.080625)
    (xy -3.191287 -0.084756) (xy -3.270569 -0.08495) (xy -3.567893 -0.08495) (xy -3.567893 -0.467224)
    (xy -3.270569 -0.467224) (xy -3.115233 -0.468785) (xy -3.026331 -0.477877) (xy -2.985352 -0.50111)
    (xy -2.973786 -0.545096) (xy -2.973244 -0.573411) (xy -2.973244 -0.679598) (xy -2.84582 -0.679598)
    (xy -2.84582 -0.573411) (xy -2.837897 -0.507885) (xy -2.798957 -0.47684) (xy -2.706236 -0.467629)
    (xy -2.654682 -0.467224) (xy -2.463545 -0.467224) (xy -2.463545 0.162821) (xy -2.461729 0.386079)
    (xy -2.456731 0.578464) (xy -2.449223 0.724316) (xy -2.43988 0.807972) (xy -2.435229 0.821182)
    (xy -2.374451 0.843531) (xy -2.307804 0.849499) (xy -2.208696 0.849499) (xy -2.208696 -0.036276)
    (xy -1.730046 -0.036276) (xy -1.728067 0.203638) (xy -1.657505 0.428261) (xy -1.525377 0.622406)
    (xy -1.338701 0.770884) (xy -1.13514 0.851646) (xy -0.948426 0.868992) (xy -0.741271 0.846448)
    (xy -0.562263 0.789606) (xy -0.555381 0.786161) (xy 0.042475 0.786161) (xy 0.079157 0.837158)
    (xy 0.144053 0.849499) (xy 0.198302 0.84135) (xy 0.236998 0.805314) (xy 0.26981 0.724005)
    (xy 0.306406 0.580039) (xy 0.315088 0.54194) (xy 0.353877 0.363639) (xy 0.388245 0.194335)
    (xy 0.410319 0.07319) (xy 0.436094 -0.088001) (xy 0.673396 0.406781) (xy 0.910697 0.901562)
    (xy 1.156185 0.40237) (xy 1.24589 0.226053) (xy 1.3209 0.090233) (xy 1.374597 0.006005)
    (xy 1.400363 -0.015537) (xy 1.401672 -0.009144) (xy 1.410932 0.069853) (xy 1.435719 0.20751)
    (xy 1.471547 0.379925) (xy 1.490886 0.466009) (xy 1.5801 0.853484) (xy 1.819635 0.840872)
    (xy 2.05917 0.828261) (xy 2.155673 0.624576) (xy 2.252177 0.420891) (xy 2.538379 0.433439)
    (xy 2.824582 0.445987) (xy 2.92097 0.647743) (xy 2.985513 0.768598) (xy 3.042991 0.82905)
    (xy 3.11502 0.848657) (xy 3.143963 0.849499) (xy 3.233159 0.844813) (xy 3.270567 0.833537)
    (xy 3.270568 0.833453) (xy 3.253261 0.788051) (xy 3.205885 0.680609) (xy 3.135262 0.525609)
    (xy 3.048212 0.337535) (xy 2.987736 0.208228) (xy 3.397465 0.208228) (xy 3.399191 0.415996)
    (xy 3.403707 0.596375) (xy 3.41114 0.733321) (xy 3.421618 0.810789) (xy 3.42631 0.821182)
    (xy 3.487087 0.843531) (xy 3.553735 0.849499) (xy 3.595373 0.846821) (xy 3.62333 0.829383)
    (xy 3.640331 0.783074) (xy 3.6491 0.693788) (xy 3.652362 0.547413) (xy 3.652843 0.336316)
    (xy 3.652843 -0.176867) (xy 4.194068 0.336316) (xy 4.371315 0.502723) (xy 4.527917 0.646615)
    (xy 4.653331 0.758556) (xy 4.737014 0.829113) (xy 4.76748 0.849499) (xy 4.777761 0.809259)
    (xy 4.786684 0.697476) (xy 4.793684 0.527552) (xy 4.798196 0.31289) (xy 4.799665 0.08495)
    (xy 4.799665 -0.679598) (xy 5.139465 -0.679598) (xy 5.139465 0.849499) (xy 5.988963 0.849499)
    (xy 5.988963 0.594649) (xy 5.394314 0.594649) (xy 5.394314 0.127425) (xy 5.691639 0.127425)
    (xy 5.846974 0.125864) (xy 5.935876 0.116772) (xy 5.976855 0.093538) (xy 5.988422 0.049553)
    (xy 5.988963 0.021238) (xy 5.984591 -0.034239) (xy 5.959134 -0.06599) (xy 5.894081 -0.080625)
    (xy 5.770921 -0.084756) (xy 5.691639 -0.08495) (xy 5.394314 -0.08495) (xy 5.394314 -0.467224)
    (xy 5.691639 -0.467224) (xy 5.846974 -0.468785) (xy 5.935876 -0.477877) (xy 5.976855 -0.50111)
    (xy 5.988422 -0.545096) (xy 5.988963 -0.573411) (xy 5.988963 -0.679598) (xy 6.923411 -0.679598)
    (xy 6.923411 0.849499) (xy 7.188879 0.847101) (xy 7.359141 0.837411) (xy 7.518886 0.814946)
    (xy 7.60301 0.794008) (xy 7.747594 0.706071) (xy 7.841941 0.571876) (xy 7.880996 0.41395)
    (xy 7.859706 0.254823) (xy 7.773016 0.117024) (xy 7.758026 0.103032) (xy 7.691868 0.037926)
    (xy 7.685989 -0.010655) (xy 7.735964 -0.08123) (xy 7.736743 -0.082192) (xy 7.806817 -0.230965)
    (xy 7.795808 -0.401452) (xy 7.753243 -0.506661) (xy 7.703457 -0.586599) (xy 7.64132 -0.637454)
    (xy 7.547782 -0.665625) (xy 7.403796 -0.677512) (xy 7.238499 -0.679598) (xy 6.923411 -0.679598)
    (xy 5.988963 -0.679598) (xy 5.139465 -0.679598) (xy 4.799665 -0.679598) (xy 4.544816 -0.679598)
    (xy 4.544816 0.349707) (xy 4.011945 -0.175564) (xy 3.836836 -0.346774) (xy 3.681235 -0.496264)
    (xy 3.55571 -0.614096) (xy 3.470823 -0.690331) (xy 3.438534 -0.714994) (xy 3.426205 -0.679848)
    (xy 3.415899 -0.575819) (xy 3.407745 -0.418951) (xy 3.401869 -0.225291) (xy 3.3984 -0.010882)
    (xy 3.397465 0.208228) (xy 2.987736 0.208228) (xy 2.951555 0.130869) (xy 2.852112 -0.079906)
    (xy 2.756703 -0.280307) (xy 2.672148 -0.455853) (xy 2.605269 -0.592059) (xy 2.562886 -0.674445)
    (xy 2.552263 -0.691811) (xy 2.537966 -0.693173) (xy 2.515068 -0.669087) (xy 2.479797 -0.612109)
    (xy 2.42838 -0.514794) (xy 2.357046 -0.369698) (xy 2.262021 -0.169376) (xy 2.139535 0.093617)
    (xy 1.988766 0.420312) (xy 1.915779 0.573418) (xy 1.855513 0.689691) (xy 1.816547 0.753079)
    (xy 1.807376 0.759662) (xy 1.792742 0.71455) (xy 1.763078 0.600469) (xy 1.721807 0.431372)
    (xy 1.672353 0.221211) (xy 1.63127 0.042025) (xy 1.577126 -0.191568) (xy 1.527518 -0.396102)
    (xy 1.486109 -0.557201) (xy 1.456563 -0.660488) (xy 1.444399 -0.691356) (xy 1.418242 -0.666811)
    (xy 1.365224 -0.577014) (xy 1.292105 -0.434729) (xy 1.205647 -0.252716) (xy 1.167548 -0.168756)
    (xy 0.918712 0.386839) (xy 0.722953 -0.029574) (xy 0.635616 -0.217057) (xy 0.556171 -0.390644)
    (xy 0.49527 -0.526906) (xy 0.469839 -0.586393) (xy 0.425304 -0.669181) (xy 0.387708 -0.696316)
    (xy 0.381806 -0.69258) (xy 0.363532 -0.642473) (xy 0.331576 -0.525948) (xy 0.289774 -0.359711)
    (xy 0.241959 -0.160469) (xy 0.191964 0.055073) (xy 0.143623 0.270208) (xy 0.100769 0.46823)
    (xy 0.067237 0.632432) (xy 0.046861 0.746107) (xy 0.042475 0.786161) (xy -0.555381 0.786161)
    (xy -0.552174 0.784556) (xy -0.352128 0.637112) (xy -0.21246 0.442492) (xy -0.137658 0.217491)
    (xy -0.132206 -0.021095) (xy -0.200592 -0.25647) (xy -0.250032 -0.3466) (xy -0.412887 -0.533053)
    (xy -0.613359 -0.655247) (xy -0.835675 -0.71397) (xy -1.064064 -0.710009) (xy -1.282753 -0.644154)
    (xy -1.47597 -0.517192) (xy -1.627942 -0.329913) (xy -1.656421 -0.276296) (xy -1.730046 -0.036276)
    (xy -2.208696 -0.036276) (xy -2.208696 -0.467224) (xy -1.996321 -0.467224) (xy -1.870279 -0.470667)
    (xy -1.8074 -0.488236) (xy -1.785958 -0.530796) (xy -1.783947 -0.573411) (xy -1.783947 -0.679598)
    (xy -2.84582 -0.679598) (xy -2.973244 -0.679598) (xy -3.822743 -0.679598) (xy -4.648211 -0.679598)
    (xy -4.969565 -0.679598) (xy -5.904014 -0.679598) (xy -6.753512 -0.679598) (xy -7.475585 -0.679598)
    (xy -7.730435 -0.679598) (xy -8.451311 -0.679598) (xy -8.451238 -0.702359) (xy -8.449569 -0.8909)
    (xy -3.494688 -0.8909) (xy -3.483228 -0.851759) (xy -3.416151 -0.87081) (xy -3.29723 -0.948748)
    (xy -3.285197 -0.957847) (xy -3.180537 -1.05102) (xy -3.148482 -1.113315) (xy -3.189744 -1.140903)
    (xy -3.25145 -1.139025) (xy -3.360992 -1.08676) (xy -3.446758 -0.987541) (xy -3.494688 -0.8909)
    (xy -8.449569 -0.8909) (xy -8.449004 -0.954674) (xy -8.445127 -1.147997) (xy -8.439177 -1.290981)
    (xy -8.430722 -1.392276) (xy -8.419331 -1.460537) (xy -8.404572 -1.504414) (xy -8.386015 -1.532561)
    (xy -8.374833 -1.543751) (xy -8.361151 -1.552127) (xy -8.337067 -1.559815) (xy -8.299081 -1.566843)
    (xy -8.243694 -1.573241) (xy -8.167406 -1.579039) (xy -8.06672 -1.584265) (xy -7.938135 -1.588949)
    (xy -7.778153 -1.59312) (xy -7.583273 -1.596807) (xy -7.349998 -1.60004) (xy -7.074828 -1.602847)
    (xy -6.754264 -1.605259) (xy -6.384806 -1.607304) (xy -5.962956 -1.609012) (xy -5.485214 -1.610412)
    (xy -4.948081 -1.611533) (xy -4.348058 -1.612404) (xy -3.681646 -1.613055) (xy -2.945345 -1.613516)
    (xy -2.135657 -1.613814) (xy -1.249083 -1.61398) (xy -0.282122 -1.614043) (xy 0.028617 -1.614046)
    (xy 1.017704 -1.614025)) (layer F.SilkS) (width 0.01))
  (fp_poly (pts (xy -0.730152 -0.440068) (xy -0.56106 -0.324113) (xy -0.465355 -0.199448) (xy -0.395307 -0.012154)
    (xy -0.39799 0.178781) (xy -0.463804 0.356247) (xy -0.583151 0.503133) (xy -0.746434 0.602328)
    (xy -0.934448 0.636807) (xy -1.073907 0.613617) (xy -1.213341 0.557179) (xy -1.22371 0.551085)
    (xy -1.370389 0.415721) (xy -1.457198 0.238086) (xy -1.478622 0.041193) (xy -1.429148 -0.151947)
    (xy -1.403541 -0.199448) (xy -1.2591 -0.368393) (xy -1.078996 -0.460395) (xy -0.934448 -0.478808)
    (xy -0.730152 -0.440068)) (layer F.SilkS) (width 0.01))
  (fp_poly (pts (xy 2.620219 -0.052493) (xy 2.673464 0.067387) (xy 2.708334 0.154786) (xy 2.715788 0.180519)
    (xy 2.679555 0.19973) (xy 2.585099 0.211072) (xy 2.532759 0.212375) (xy 2.347124 0.212375)
    (xy 2.43719 -0.020637) (xy 2.527257 -0.253648) (xy 2.620219 -0.052493)) (layer F.SilkS) (width 0.01))
  (fp_poly (pts (xy -4.431905 -0.44306) (xy -4.353608 -0.366415) (xy -4.332442 -0.248861) (xy -4.338619 -0.164084)
    (xy -4.371103 -0.115112) (xy -4.450823 -0.084513) (xy -4.555758 -0.062841) (xy -4.714716 -0.03302)
    (xy -4.714716 -0.467224) (xy -4.574549 -0.467224) (xy -4.431905 -0.44306)) (layer F.SilkS) (width 0.01))
  (fp_poly (pts (xy 7.315531 0.153439) (xy 7.478563 0.182088) (xy 7.573064 0.25817) (xy 7.60301 0.382275)
    (xy 7.576895 0.500984) (xy 7.491132 0.577887) (xy 7.334592 0.622865) (xy 7.331466 0.623377)
    (xy 7.218379 0.630195) (xy 7.16292 0.599276) (xy 7.155096 0.583706) (xy 7.142639 0.502962)
    (xy 7.141316 0.378751) (xy 7.143725 0.33404) (xy 7.155514 0.219109) (xy 7.183309 0.166148)
    (xy 7.24879 0.152369) (xy 7.315531 0.153439)) (layer F.SilkS) (width 0.01))
  (fp_poly (pts (xy 7.452137 -0.444669) (xy 7.53819 -0.375266) (xy 7.559885 -0.27821) (xy 7.536425 -0.162386)
    (xy 7.458767 -0.09223) (xy 7.312788 -0.055031) (xy 7.311807 -0.054899) (xy 7.135786 -0.031289)
    (xy 7.135786 -0.467224) (xy 7.29719 -0.467224) (xy 7.452137 -0.444669)) (layer F.SilkS) (width 0.01))
)
